module gitlab.com/Lofter1/mkm-notifier

go 1.19

require github.com/gocolly/colly v1.2.0

require (
	github.com/PuerkitoBio/goquery v1.8.0 // indirect
	github.com/andybalholm/cascadia v1.3.1 // indirect
	github.com/antchfx/htmlquery v1.2.5 // indirect
	github.com/antchfx/xmlquery v1.3.13 // indirect
	github.com/antchfx/xpath v1.2.1 // indirect
	github.com/gobwas/glob v0.2.3 // indirect
	github.com/golang/groupcache v0.0.0-20200121045136-8c9f03a8e57e // indirect
	github.com/golang/protobuf v1.3.1 // indirect
	github.com/kennygrant/sanitize v1.2.4 // indirect
	github.com/saintfish/chardet v0.0.0-20230101081208-5e3ef4b5456d // indirect
	github.com/temoto/robotstxt v1.1.2 // indirect
	golang.org/x/net v0.5.0 // indirect
	golang.org/x/text v0.6.0 // indirect
	google.golang.org/appengine v1.6.7 // indirect
)
